disease,keywords
ILI,"sore throat, coughing, high temperature, fever, feverish, breathing difficulty, flu, influenza, myalgia, tamiflu, relenza, sneezing, cough"
Norovirus,"vomit, vomiting, diarrhoea, nausea, stomach cramps, norovirus, dioralyte"
Chickenpox,"chickenpox, high temperature, rash, itchy, aciclovir, chlorphenamine, calomine"
Tonsillitis,"sore throat, tonsillitis, tonsils, swollen glands"
Medicines,"lemsip, dioralyte, nurofen, ibuprofen, panadol, calpol, paracetamol, aspirin, "
General,"Feel sick, off sick, home sick, doctors, feel awful, recover, get better, virus, medicine, ugh, hurts, cold, #sick"
